%YAML 1.1
%TAG !u! tag:unity3d.com,2011:
--- !u!114 &11400000
MonoBehaviour:
  m_ObjectHideFlags: 0
  m_CorrespondingSourceObject: {fileID: 0}
  m_PrefabInternal: {fileID: 0}
  m_GameObject: {fileID: 0}
  m_Enabled: 1
  m_EditorHideFlags: 0
  m_Script: {fileID: 11500000, guid: 12b8be8813ed419cae95f7777537ffc2, type: 3}
  m_Name: Squad1_3
  m_EditorClassIdentifier: 
  Positions:
  - Position: {x: -0.051, y: 0.06, z: 0}
    UnitVariationId: 8
  - Position: {x: -0.877, y: -0.918, z: 0}
    UnitVariationId: 7
  - Position: {x: 0.779, y: -0.873, z: 0}
    UnitVariationId: 7
