%YAML 1.1
%TAG !u! tag:unity3d.com,2011:
--- !u!114 &11400000
MonoBehaviour:
  m_ObjectHideFlags: 0
  m_CorrespondingSourceObject: {fileID: 0}
  m_PrefabInternal: {fileID: 0}
  m_GameObject: {fileID: 0}
  m_Enabled: 1
  m_EditorHideFlags: 0
  m_Script: {fileID: 11500000, guid: febd5109482f52f428ef0371a7ae8e72, type: 3}
  m_Name: ShipsStats
  m_EditorClassIdentifier: 
  BaseStats:
  - Type: Player
    Health: 100
    ShootSpeed: 500
    MoveSpeed: 10
    Mobility: 10
  - Type: Enemy
    Health: 100
    ShootSpeed: 500
    MoveSpeed: 5
    Mobility: 15
  ShipsVariations:
  - TypeId: 0
    Id: Fast shot
    BodyPrefab: {fileID: 1923968067733026, guid: 32854d860b2ae88429d0b7024549a273,
      type: 2}
    HealthMultiplier: 1
    ShootSpeedMultiplier: 5
    MoveSpeedMultiplier: 1
    MobilityMultiplier: 1
    WeaponDamageMultiplier: 1
  - TypeId: 0
    Id: Annihilator
    BodyPrefab: {fileID: 1258185737531150, guid: e6f317b6b20c17f488e7b3cb3515261a,
      type: 2}
    HealthMultiplier: 1
    ShootSpeedMultiplier: 1
    MoveSpeedMultiplier: 1
    MobilityMultiplier: 1
    WeaponDamageMultiplier: 6
  - TypeId: 0
    Id: Ranger
    BodyPrefab: {fileID: 1236580059839166, guid: cfda44cc5b7532b4b8b2746e90aa56e9,
      type: 2}
    HealthMultiplier: 1
    ShootSpeedMultiplier: 2
    MoveSpeedMultiplier: 1.8
    MobilityMultiplier: 3
    WeaponDamageMultiplier: 2
  - TypeId: 0
    Id: Tank
    BodyPrefab: {fileID: 1180708077150014, guid: b2c709d4b2dea964f94d2e39981c1d5e,
      type: 2}
    HealthMultiplier: 4
    ShootSpeedMultiplier: 2
    MoveSpeedMultiplier: 1
    MobilityMultiplier: 1
    WeaponDamageMultiplier: 2
  - TypeId: 0
    Id: Balance
    BodyPrefab: {fileID: 1075575887640862, guid: 91e37febf3bb0214c9a6c251717b68e0,
      type: 2}
    HealthMultiplier: 2
    ShootSpeedMultiplier: 3
    MoveSpeedMultiplier: 1.2
    MobilityMultiplier: 2
    WeaponDamageMultiplier: 2
  - TypeId: 1
    Id: 1.1
    BodyPrefab: {fileID: 1268953742451404, guid: c7378002bf72c0f4bb7c99272debf178,
      type: 2}
    HealthMultiplier: 0.5
    ShootSpeedMultiplier: 1
    MoveSpeedMultiplier: 1
    MobilityMultiplier: 1
    WeaponDamageMultiplier: 1
  - TypeId: 1
    Id: 1.2
    BodyPrefab: {fileID: 1113501227758378, guid: ccc2fcb807411a8458645238a791bae8,
      type: 2}
    HealthMultiplier: 2
    ShootSpeedMultiplier: 0.25
    MoveSpeedMultiplier: 1
    MobilityMultiplier: 1
    WeaponDamageMultiplier: 3
  - TypeId: 1
    Id: 1.3
    BodyPrefab: {fileID: 1886175180883090, guid: 9c68ba8ba459f0c40a2db0b8aebfa07c,
      type: 2}
    HealthMultiplier: 1
    ShootSpeedMultiplier: 1
    MoveSpeedMultiplier: 1
    MobilityMultiplier: 1
    WeaponDamageMultiplier: 1
  - TypeId: 1
    Id: 1.4
    BodyPrefab: {fileID: 1342402462207052, guid: ed678b30e99e658488dc75591e142e71,
      type: 2}
    HealthMultiplier: 1
    ShootSpeedMultiplier: 1
    MoveSpeedMultiplier: 1
    MobilityMultiplier: 1
    WeaponDamageMultiplier: 1
  - TypeId: 1
    Id: 1.5
    BodyPrefab: {fileID: 1601292422296704, guid: 79e6798dbc3a93746956091e7d136649,
      type: 2}
    HealthMultiplier: 1
    ShootSpeedMultiplier: 1
    MoveSpeedMultiplier: 1
    MobilityMultiplier: 1
    WeaponDamageMultiplier: 1
  - TypeId: 1
    Id: 2.1
    BodyPrefab: {fileID: 1376720472234426, guid: a70f1c7d672c0a247af6d163b1b635b5,
      type: 2}
    HealthMultiplier: 1
    ShootSpeedMultiplier: 1
    MoveSpeedMultiplier: 1
    MobilityMultiplier: 1
    WeaponDamageMultiplier: 1
  - TypeId: 1
    Id: 2.2
    BodyPrefab: {fileID: 1221285775612816, guid: d7653f4e7b03220428b21442e66fdd48,
      type: 2}
    HealthMultiplier: 1
    ShootSpeedMultiplier: 1
    MoveSpeedMultiplier: 1
    MobilityMultiplier: 1
    WeaponDamageMultiplier: 1
  - TypeId: 1
    Id: 2.3
    BodyPrefab: {fileID: 1818749242151096, guid: 0387aadc40bf0194195bed56a5a74164,
      type: 2}
    HealthMultiplier: 1
    ShootSpeedMultiplier: 1
    MoveSpeedMultiplier: 1
    MobilityMultiplier: 1
    WeaponDamageMultiplier: 1
  - TypeId: 1
    Id: 2.4
    BodyPrefab: {fileID: 1323153061797446, guid: dc69c2381f023c74d9831b2f9a59b266,
      type: 2}
    HealthMultiplier: 1
    ShootSpeedMultiplier: 1
    MoveSpeedMultiplier: 1
    MobilityMultiplier: 1
    WeaponDamageMultiplier: 1
  - TypeId: 1
    Id: 2.5
    BodyPrefab: {fileID: 1197612069475636, guid: e6851694faf458442993e719063a63b9,
      type: 2}
    HealthMultiplier: 1
    ShootSpeedMultiplier: 1
    MoveSpeedMultiplier: 1
    MobilityMultiplier: 1
    WeaponDamageMultiplier: 1
  - TypeId: 1
    Id: 3.1
    BodyPrefab: {fileID: 1279173232330518, guid: 6891a97ccaed6e9458bd9228d9c53bc9,
      type: 2}
    HealthMultiplier: 1
    ShootSpeedMultiplier: 1
    MoveSpeedMultiplier: 1
    MobilityMultiplier: 1
    WeaponDamageMultiplier: 1
  - TypeId: 1
    Id: 3.2
    BodyPrefab: {fileID: 1526871426799052, guid: fdaf76dfb710d6246ab5124c7c55938d,
      type: 2}
    HealthMultiplier: 1
    ShootSpeedMultiplier: 1
    MoveSpeedMultiplier: 1
    MobilityMultiplier: 1
    WeaponDamageMultiplier: 1
  - TypeId: 1
    Id: 3.3
    BodyPrefab: {fileID: 1786943893358876, guid: 999ad1be0f943aa48945f3f6bda59208,
      type: 2}
    HealthMultiplier: 1
    ShootSpeedMultiplier: 1
    MoveSpeedMultiplier: 1
    MobilityMultiplier: 1
    WeaponDamageMultiplier: 1
  - TypeId: 1
    Id: 3.4
    BodyPrefab: {fileID: 1041493357731388, guid: 33040b135165ac24c98b20646daaad0f,
      type: 2}
    HealthMultiplier: 1
    ShootSpeedMultiplier: 1
    MoveSpeedMultiplier: 1
    MobilityMultiplier: 1
    WeaponDamageMultiplier: 1
  - TypeId: 1
    Id: 3.5
    BodyPrefab: {fileID: 1240851436699638, guid: da48068367263204cb575d4dd8844fc5,
      type: 2}
    HealthMultiplier: 1
    ShootSpeedMultiplier: 1
    MoveSpeedMultiplier: 1
    MobilityMultiplier: 1
    WeaponDamageMultiplier: 1
